%YAML 1.1
%TAG !u! tag:unity3d.com,2011:
--- !u!1001 &8926881334854420394
PrefabInstance:
  m_ObjectHideFlags: 0
  serializedVersion: 2
  m_Modification:
    serializedVersion: 3
    m_TransformParent: {fileID: 0}
    m_Modifications:
    - target: {fileID: -8679921383154817045, guid: 8eba7df8d53192342bb7f2f534db6977,
        type: 3}
      propertyPath: m_LocalPosition.x
      value: 0
      objectReference: {fileID: 0}
    - target: {fileID: -8679921383154817045, guid: 8eba7df8d53192342bb7f2f534db6977,
        type: 3}
      propertyPath: m_LocalPosition.y
      value: 0
      objectReference: {fileID: 0}
    - target: {fileID: -8679921383154817045, guid: 8eba7df8d53192342bb7f2f534db6977,
        type: 3}
      propertyPath: m_LocalPosition.z
      value: 0
      objectReference: {fileID: 0}
    - target: {fileID: -8679921383154817045, guid: 8eba7df8d53192342bb7f2f534db6977,
        type: 3}
      propertyPath: m_LocalRotation.w
      value: 1
      objectReference: {fileID: 0}
    - target: {fileID: -8679921383154817045, guid: 8eba7df8d53192342bb7f2f534db6977,
        type: 3}
      propertyPath: m_LocalRotation.x
      value: 0
      objectReference: {fileID: 0}
    - target: {fileID: -8679921383154817045, guid: 8eba7df8d53192342bb7f2f534db6977,
        type: 3}
      propertyPath: m_LocalRotation.y
      value: 0
      objectReference: {fileID: 0}
    - target: {fileID: -8679921383154817045, guid: 8eba7df8d53192342bb7f2f534db6977,
        type: 3}
      propertyPath: m_LocalRotation.z
      value: 0
      objectReference: {fileID: 0}
    - target: {fileID: -8679921383154817045, guid: 8eba7df8d53192342bb7f2f534db6977,
        type: 3}
      propertyPath: m_LocalEulerAnglesHint.x
      value: 0
      objectReference: {fileID: 0}
    - target: {fileID: -8679921383154817045, guid: 8eba7df8d53192342bb7f2f534db6977,
        type: 3}
      propertyPath: m_LocalEulerAnglesHint.y
      value: 0
      objectReference: {fileID: 0}
    - target: {fileID: -8679921383154817045, guid: 8eba7df8d53192342bb7f2f534db6977,
        type: 3}
      propertyPath: m_LocalEulerAnglesHint.z
      value: 0
      objectReference: {fileID: 0}
    - target: {fileID: 61703741823206121, guid: 8eba7df8d53192342bb7f2f534db6977,
        type: 3}
      propertyPath: m_IsActive
      value: 1
      objectReference: {fileID: 0}
    - target: {fileID: 919132149155446097, guid: 8eba7df8d53192342bb7f2f534db6977,
        type: 3}
      propertyPath: m_Name
      value: OfficeWorkerPatroller
      objectReference: {fileID: 0}
    - target: {fileID: 3100114576813497124, guid: 8eba7df8d53192342bb7f2f534db6977,
        type: 3}
      propertyPath: m_IsActive
      value: 1
      objectReference: {fileID: 0}
    m_RemovedComponents: []
    m_RemovedGameObjects: []
    m_AddedGameObjects: []
    m_AddedComponents:
    - targetCorrespondingSourceObject: {fileID: 919132149155446097, guid: 8eba7df8d53192342bb7f2f534db6977,
        type: 3}
      insertIndex: -1
      addedObject: {fileID: 682077253303221061}
    - targetCorrespondingSourceObject: {fileID: 919132149155446097, guid: 8eba7df8d53192342bb7f2f534db6977,
        type: 3}
      insertIndex: -1
      addedObject: {fileID: 8650557005351590783}
    - targetCorrespondingSourceObject: {fileID: 919132149155446097, guid: 8eba7df8d53192342bb7f2f534db6977,
        type: 3}
      insertIndex: -1
      addedObject: {fileID: 7836544965071856297}
  m_SourcePrefab: {fileID: 100100000, guid: 8eba7df8d53192342bb7f2f534db6977, type: 3}
--- !u!1 &8584932462098725627 stripped
GameObject:
  m_CorrespondingSourceObject: {fileID: 919132149155446097, guid: 8eba7df8d53192342bb7f2f534db6977,
    type: 3}
  m_PrefabInstance: {fileID: 8926881334854420394}
  m_PrefabAsset: {fileID: 0}
--- !u!95 &682077253303221061
Animator:
  serializedVersion: 5
  m_ObjectHideFlags: 0
  m_CorrespondingSourceObject: {fileID: 0}
  m_PrefabInstance: {fileID: 0}
  m_PrefabAsset: {fileID: 0}
  m_GameObject: {fileID: 8584932462098725627}
  m_Enabled: 1
  m_Avatar: {fileID: 0}
  m_Controller: {fileID: 9100000, guid: 823f9906058ca8d49846fc2e67dfdf7a, type: 2}
  m_CullingMode: 0
  m_UpdateMode: 0
  m_ApplyRootMotion: 0
  m_LinearVelocityBlending: 0
  m_StabilizeFeet: 0
  m_WarningMessage: 
  m_HasTransformHierarchy: 1
  m_AllowConstantClipSamplingOptimization: 1
  m_KeepAnimatorStateOnDisable: 0
  m_WriteDefaultValuesOnDisable: 0
--- !u!114 &8650557005351590783
MonoBehaviour:
  m_ObjectHideFlags: 0
  m_CorrespondingSourceObject: {fileID: 0}
  m_PrefabInstance: {fileID: 0}
  m_PrefabAsset: {fileID: 0}
  m_GameObject: {fileID: 8584932462098725627}
  m_Enabled: 1
  m_EditorHideFlags: 0
  m_Script: {fileID: 11500000, guid: d2fd5a4e0bc93a24cb2acb17610e5d47, type: 3}
  m_Name: 
  m_EditorClassIdentifier: 
  minWaitTimeAtPatrolPoint: 3
  maxWaitTimeAtPatrolPoint: 5
  patrolPoints: []
  walkingParametarName: walk
--- !u!195 &7836544965071856297
NavMeshAgent:
  m_ObjectHideFlags: 0
  m_CorrespondingSourceObject: {fileID: 0}
  m_PrefabInstance: {fileID: 0}
  m_PrefabAsset: {fileID: 0}
  m_GameObject: {fileID: 8584932462098725627}
  m_Enabled: 1
  m_AgentTypeID: 0
  m_Radius: 0.5
  m_Speed: 3.5
  m_Acceleration: 8
  avoidancePriority: 50
  m_AngularSpeed: 120
  m_StoppingDistance: 0
  m_AutoTraverseOffMeshLink: 1
  m_AutoBraking: 1
  m_AutoRepath: 1
  m_Height: 2
  m_BaseOffset: 0
  m_WalkableMask: 4294967295
  m_ObstacleAvoidanceType: 4
